2020-06-03 14:15:49,317 ERROR: Exception on /auth/register [GET] [in /home/oreon/Documents/Python/Flask/Microblog/microblog/mbvenv/lib/python3.8/site-packages/flask/app.py:1891]
Traceback (most recent call last):
  File "/home/oreon/Documents/Python/Flask/Microblog/microblog/mbvenv/lib/python3.8/site-packages/flask/app.py", line 2447, in wsgi_app
    response = self.full_dispatch_request()
  File "/home/oreon/Documents/Python/Flask/Microblog/microblog/mbvenv/lib/python3.8/site-packages/flask/app.py", line 1952, in full_dispatch_request
    rv = self.handle_user_exception(e)
  File "/home/oreon/Documents/Python/Flask/Microblog/microblog/mbvenv/lib/python3.8/site-packages/flask/app.py", line 1821, in handle_user_exception
    reraise(exc_type, exc_value, tb)
  File "/home/oreon/Documents/Python/Flask/Microblog/microblog/mbvenv/lib/python3.8/site-packages/flask/_compat.py", line 39, in reraise
    raise value
  File "/home/oreon/Documents/Python/Flask/Microblog/microblog/mbvenv/lib/python3.8/site-packages/flask/app.py", line 1950, in full_dispatch_request
    rv = self.dispatch_request()
  File "/home/oreon/Documents/Python/Flask/Microblog/microblog/mbvenv/lib/python3.8/site-packages/flask/app.py", line 1936, in dispatch_request
    return self.view_functions[rule.endpoint](**req.view_args)
  File "/home/oreon/Documents/Python/Flask/Microblog/microblog/app/auth/routes.py", line 54, in register
    return render_template('auth/register.html', title='Sign Up', form=reg_form)
  File "/home/oreon/Documents/Python/Flask/Microblog/microblog/mbvenv/lib/python3.8/site-packages/flask/templating.py", line 138, in render_template
    ctx.app.jinja_env.get_or_select_template(template_name_or_list),
  File "/home/oreon/Documents/Python/Flask/Microblog/microblog/mbvenv/lib/python3.8/site-packages/jinja2/environment.py", line 930, in get_or_select_template
    return self.get_template(template_name_or_list, parent, globals)
  File "/home/oreon/Documents/Python/Flask/Microblog/microblog/mbvenv/lib/python3.8/site-packages/jinja2/environment.py", line 883, in get_template
    return self._load_template(name, self.make_globals(globals))
  File "/home/oreon/Documents/Python/Flask/Microblog/microblog/mbvenv/lib/python3.8/site-packages/jinja2/environment.py", line 857, in _load_template
    template = self.loader.load(self, name, globals)
  File "/home/oreon/Documents/Python/Flask/Microblog/microblog/mbvenv/lib/python3.8/site-packages/jinja2/loaders.py", line 127, in load
    code = environment.compile(source, name, filename)
  File "/home/oreon/Documents/Python/Flask/Microblog/microblog/mbvenv/lib/python3.8/site-packages/jinja2/environment.py", line 638, in compile
    self.handle_exception(source=source_hint)
  File "/home/oreon/Documents/Python/Flask/Microblog/microblog/mbvenv/lib/python3.8/site-packages/jinja2/environment.py", line 832, in handle_exception
    reraise(*rewrite_traceback_stack(source=source))
  File "/home/oreon/Documents/Python/Flask/Microblog/microblog/mbvenv/lib/python3.8/site-packages/jinja2/_compat.py", line 28, in reraise
    raise value.with_traceback(tb)
  File "/home/oreon/Documents/Python/Flask/Microblog/microblog/app/templates/auth/register.html", line 11, in template
    {% endblock %
jinja2.exceptions.TemplateSyntaxError: expected token 'end of statement block', got '%'
2020-06-03 14:17:14,286 INFO: Oreon Microblog Server startup [in /home/oreon/Documents/Python/Flask/Microblog/microblog/app/__init__.py:87]
2020-06-03 14:18:01,149 INFO: Oreon Microblog Server startup [in /home/oreon/Documents/Python/Flask/Microblog/microblog/app/__init__.py:87]
2020-06-03 14:18:31,413 INFO: Oreon Microblog Server startup [in /home/oreon/Documents/Python/Flask/Microblog/microblog/app/__init__.py:87]
2020-06-03 14:19:07,138 INFO: Oreon Microblog Server startup [in /home/oreon/Documents/Python/Flask/Microblog/microblog/app/__init__.py:87]
2020-06-03 14:20:13,950 INFO: Oreon Microblog Server startup [in /home/oreon/Documents/Python/Flask/Microblog/microblog/app/__init__.py:87]
2020-06-03 14:21:12,634 INFO: Oreon Microblog Server startup [in /home/oreon/Documents/Python/Flask/Microblog/microblog/app/__init__.py:87]
2020-06-03 14:21:47,026 INFO: Oreon Microblog Server startup [in /home/oreon/Documents/Python/Flask/Microblog/microblog/app/__init__.py:87]
2020-06-03 17:34:40,055 INFO: Oreon Microblog Server startup [in /home/oreon/Documents/Python/Flask/Microblog/microblog/app/__init__.py:91]
2020-06-04 09:10:31,181 INFO: Oreon Microblog Server startup [in /home/oreon/Documents/Python/Flask/Microblog/microblog/app/__init__.py:91]
2020-06-04 09:56:42,918 INFO: Oreon Microblog Server startup [in /home/oreon/Documents/Python/Flask/Microblog/microblog/app/__init__.py:91]
2020-06-04 11:41:18,585 INFO: Oreon Microblog Server startup [in /home/oreon/Documents/Python/Flask/Microblog/microblog/app/__init__.py:91]
2020-06-04 11:42:35,474 INFO: Oreon Microblog Server startup [in /home/oreon/Documents/Python/Flask/Microblog/microblog/app/__init__.py:91]
